{
  "name": "",
  "css_prefix_text": "icon-",
  "css_use_suffix": false,
  "hinting": true,
  "units_per_em": 1000,
  "ascent": 850,
  "glyphs": [
    {
      "uid": "bc50457410acf467b8b5721240768742",
      "css": "facebook",
      "code": 62220,
      "src": "entypo"
    },
    {
      "uid": "e70df9acbabaebfbbf9c1dbc3e52ab13",
      "css": "twitch",
      "code": 61928,
      "src": "fontawesome"
    },
    {
      "uid": "a9862b9d5197886c1ad693ecd7120b31",
      "css": "youtube",
      "code": 61799,
      "src": "fontawesome"
    },
    {
      "uid": "98687378abd1faf8f6af97c254eb6cd6",
      "css": "cog-alt",
      "code": 59392,
      "src": "fontawesome"
    },
    {
      "uid": "e99461abfef3923546da8d745372c995",
      "css": "cog",
      "code": 59393,
      "src": "fontawesome"
    },
    {
      "uid": "31972e4e9d080eaa796290349ae6c1fd",
      "css": "users",
      "code": 59394,
      "src": "fontawesome"
    },
    {
      "uid": "d7271d490b71df4311e32cdacae8b331",
      "css": "home",
      "code": 59395,
      "src": "fontawesome"
    },
    {
      "uid": "978aa8facd816df874039e139cb0cdde",
      "css": "trophy",
      "code": 59396,
      "src": "entypo"
    },
    {
      "uid": "44e04715aecbca7f266a17d5a7863c68",
      "css": "plus",
      "code": 59397,
      "src": "fontawesome"
    },
    {
      "uid": "861ab06e455e2de3232ebef67d60d708",
      "css": "minus",
      "code": 59398,
      "src": "fontawesome"
    },
    {
      "uid": "0133387f2069a1b3168942b84d81dd3a",
      "css": "gamepad",
      "code": 61723,
      "src": "fontawesome"
    },
    {
      "uid": "1bafeeb1808a5fe24484c7890096901a",
      "css": "user-plus",
      "code": 62004,
      "src": "fontawesome"
    },
    {
      "uid": "fb1c59faa93eb6e2248c2456625b08a2",
      "css": "user-times",
      "code": 62005,
      "src": "fontawesome"
    },
    {
      "uid": "ccc2329632396dc096bb638d4b46fb98",
      "css": "mail-alt",
      "code": 61664,
      "src": "fontawesome"
    }
  ]
}